{
  "kind": "collectionType",
  "collectionName": "device_infos",
  "info": {
    "name": "deviceInfo"
  },
  "options": {
    "increments": true,
    "timestamps": true
  },
  "attributes": {
    "sn": {
      "type": "string"
    },
    "imsi": {
      "type": "string",
      "unique": false,
      "required": true
    },
    "fingerPrint": {
      "type": "string"
    },
    "application": {
      "via": "device_infos",
      "model": "application"
    },
    "firmware": {
      "model": "firmware",
      "via": "device_infos"
    },
    "burn_img": {
      "model": "burn-img",
      "via": "device_infos"
    },
    "systemVersion": {
      "type": "string",
      "private": true
    },
    "appVersion": {
      "type": "string",
      "private": true
    }
  }
}
