{
  "routes": [
    {
      "method": "GET",
      "path": "/firmwares",
      "handler": "firmware.find",
      "config": {
        "policies": []
      }
    },
    {
      "method": "GET",
      "path": "/firmwares/count",
      "handler": "firmware.count",
      "config": {
        "policies": []
      }
    },
    {
      "method": "GET",
      "path": "/firmwares/:id",
      "handler": "firmware.findOne",
      "config": {
        "policies": []
      }
    },
    {
      "method": "POST",
      "path": "/firmwares",
      "handler": "firmware.create",
      "config": {
        "policies": []
      }
    },
    {
      "method": "PUT",
      "path": "/firmwares/:id",
      "handler": "firmware.update",
      "config": {
        "policies": []
      }
    },
    {
      "method": "PUT",
      "path": "/firmwares/:model/updateFile",
      "handler": "firmware.updateFile",
      "config": {
        "policies": []
      }
    },
    {
      "method": "DELETE",
      "path": "/firmwares/:id",
      "handler": "firmware.delete",
      "config": {
        "policies": []
      }
    }
  ]
}
